<?xml version="1.0" encoding="utf-8"?>
<!-- Generator: Adobe Illustrator 22.0.0, SVG Export Plug-In . SVG Version: 6.00 Build 0)  -->
<svg version="1.1" id="圖層_1" xmlns="http://www.w3.org/2000/svg" xmlns:xlink="http://www.w3.org/1999/xlink" x="0px" y="0px"
	 viewBox="0 0 1091 813.1" style="enable-background:new 0 0 1091 813.1;" xml:space="preserve">
<style type="text/css">
	.st0{fill:none;stroke:#DDDAD7;stroke-width:1.4368;stroke-miterlimit:10;}
	.st1{opacity:0.79;}
	.st2{filter:url(#Adobe_OpacityMaskFilter);}
	.st3{mask:url(#SVGID_1_);}
	.st4{fill:#00FFFF;}
</style>
<g>
	<g>
		<g class="st1">
			<defs>
				<filter id="Adobe_OpacityMaskFilter" filterUnits="userSpaceOnUse" x="351.3" y="261" width="381" height="128">
					<feFlood  style="flood-color:white;flood-opacity:1" result="back"/>
					<feBlend  in="SourceGraphic" in2="back" mode="normal"/>
				</filter>
			</defs>
			<mask maskUnits="userSpaceOnUse" x="351.3" y="261" width="381" height="128" id="SVGID_1_">
				<g class="st2">
					
						<image style="overflow:visible;" width="386" height="133" xlink:href="CB741AA2.jpg"  transform="matrix(1 0 0 1 349.1469 258.8171)">
					</image>
				</g>
			</mask>
			<g class="st3">
				<g style="opacity:0.87;">
					
						<image style="overflow:visible;" width="381" height="128" xlink:href="CB741AA6.png"  transform="matrix(1 0 0 1 351.3416 261.0118)">
					</image>
				</g>
				<g>
					<path class="st4" d="M720.1,330c-8-5.6-16.1-10.8-24.3-15.6c-8.3-4.8-16.7-9.2-25.2-13c-4.3-1.9-8.6-3.6-12.9-5
						c-4.3-1.4-8.7-2.7-13-3.5c-4.3-0.9-8.6-1.4-12.8-1.5c-1,0-2.1,0-3.1,0l-1.5,0.1l-1.3,0.1c-1.7,0.2-3.3,0.6-4.9,1.2
						c-3.1,1.1-5.8,3-8.5,5.5c-2.6,2.5-5.1,5.7-7.4,9.3c-4.6,7.2-8.7,15.6-13.1,24.3c-2.2,4.4-4.5,8.8-7.2,13.3
						c-2.7,4.5-5.6,9-9.3,13.5c-3.7,4.4-8.2,8.7-13.9,12.1c-5.6,3.4-12.5,5.5-19.1,5.9c-6.5,0.5-13.8-0.7-20-3.6
						c-6.2-2.9-11.3-7-15.3-11.3c-4-4.3-7.2-8.9-10-13.3c-2.8-4.5-5.3-8.9-7.6-13.3c-4.6-8.7-8.7-17.2-13.3-24.6
						c-4.6-7.4-9.8-13.6-15.6-16.7c-1.5-0.8-3-1.3-4.6-1.8l-1.2-0.3c-0.4-0.1-0.8-0.1-1.3-0.2c-0.4-0.1-0.9-0.1-1.3-0.1
						c-0.4-0.1-1-0.1-1.5-0.1c-4.1-0.2-8.3,0.1-12.6,0.8c-4.3,0.7-8.6,1.7-12.9,3.1c-4.3,1.4-8.6,3-12.8,4.9
						c-4.2,1.9-8.4,3.9-12.6,6.2c-4.2,2.2-8.2,4.6-12.3,7.1c-8.1,5.1-16,10.5-23.7,16.5c5.7-8,12.3-15.3,19.3-22.1
						c3.5-3.4,7.3-6.7,11.1-9.8c3.9-3.1,7.9-6.1,12.1-8.8c4.2-2.7,8.6-5.3,13.3-7.6c4.6-2.2,9.5-4.2,14.6-5.7c5.1-1.5,10.5-2.5,16-3
						c0.7,0,1.3-0.1,2.1-0.1c0.8,0,1.5,0,2.3,0c0.8,0,1.6,0.1,2.3,0.1l2.3,0.3c3.1,0.5,6.2,1.3,9.2,2.5c5.9,2.4,11,6,15.2,9.9
						c4.2,4,7.7,8.3,10.7,12.5c3.1,4.3,5.8,8.6,8.3,12.9l7.3,12.5c2.4,4.1,4.7,8,7.1,11.6c2.4,3.6,5,6.9,7.6,9.6
						c2.6,2.7,5.2,4.7,7.8,5.8c2.6,1.1,5.1,1.5,8.2,1.4c3-0.2,5.6-1,8.3-2.5c2.7-1.5,5.3-3.9,7.9-6.8c2.6-2.9,5-6.4,7.4-10.1
						c2.4-3.7,4.6-7.8,7-11.9c4.7-8.3,9.4-17.1,15.9-25.8c3.3-4.3,7-8.6,11.6-12.4c4.6-3.8,10.3-7,16.5-8.5c3.1-0.8,6.3-1.2,9.4-1.2
						l2.3,0l2.1,0.1c1.4,0.1,2.7,0.3,4.1,0.4c5.4,0.7,10.6,2,15.6,3.7c9.9,3.4,19,8.1,27.4,13.5c8.4,5.4,16.2,11.5,23.5,18.1
						C707.1,315.4,714,322.4,720.1,330z"/>
				</g>
			</g>
		</g>
	</g>
</g>
</svg>
