<?xml version="1.0" encoding="utf-8"?>
<!-- Generator: Adobe Illustrator 22.0.0, SVG Export Plug-In . SVG Version: 6.00 Build 0)  -->
<svg version="1.1" id="圖層_1" xmlns="http://www.w3.org/2000/svg" xmlns:xlink="http://www.w3.org/1999/xlink" x="0px" y="0px"
	 viewBox="0 0 414.9 38.7" style="enable-background:new 0 0 414.9 38.7;" xml:space="preserve">
<style type="text/css">
	.st0{fill:#2B2B2B;}
</style>
<path class="st0" d="M1.1,30.3c-0.7-0.6-0.7-1.3-0.2-2.1c2.5-4,4.5-9,5.7-15.7c0.4-1.8,1.6-2.6,3.5-2.2s2.6,1.8,2.2,3.5
	c-1.5,6.6-5.3,13.1-9,16.4C2.5,30.7,1.7,30.9,1.1,30.3z M7.6,34.5c0.2-0.8,0.7-1.1,1.7-1c6.2,0.7,7,0.2,7-1.8V3.5c0-1.9,1-2.8,3-2.8
	s3,0.9,3,2.8V33c0,5.1-5.2,7-13.9,3.3C7.7,36,7.4,35.4,7.6,34.5z M30.9,27.7c-1.5-5.9-3.2-11.4-4.8-15.6c-0.4-1-0.2-1.6,0.6-2.1
	c0.8-0.4,1.6-0.3,2.2,0.6c2.7,3.8,5.9,9.4,7.9,15c0.8,2.1,0,3.5-1.9,4.2C32.9,30.5,31.4,29.7,30.9,27.7z"/>
<path class="st0" d="M71.5,5.2c-0.7,3.1-1.5,6.3-2.4,9.4h9.4c1.6,0,2.6,1,2.5,2.7c-0.4,7-1.2,12.7-2,16.2c-1.2,5.4-6.7,6.4-14.1,1.9
	c-0.8-0.5-1-1.2-0.7-2s1-1,1.9-0.8c5.9,1.4,6.8,1,7.3-1.5C74,28,74.6,23.7,75,18.3c0-0.3-0.2-0.6-0.5-0.6h-6.4
	c-0.2,0.7-0.4,1.3-0.6,2c-0.7,2-1.9,2.6-3.8,2c-1.8-0.5-2.3-1.5-1.7-3.6c1.2-4,2.4-8.6,3.3-13h-3.6c0.4,0.2,0.6,0.7,0.6,1.3
	c0,1-0.6,1.5-1.5,1.5h-4v16.4c1.6-0.4,3-0.9,4.4-1.4c0.8-0.3,1.6,0,1.9,0.6c0.4,0.7,0.2,1.5-0.6,2c-3.3,2.2-8.6,4.8-13.4,6.3
	c-1.6,0.5-3.1-0.2-3.4-2.2c-0.3-1.8,0.5-2.9,2.3-3.2l3.1-0.6V8h-3.7c-1,0-1.5-0.6-1.5-1.5c0-1,0.5-1.5,1.5-1.5h13.3
	c-0.4-0.2-0.6-0.7-0.6-1.3c0-1,0.6-1.6,1.5-1.6h18.7c1,0,1.5,0.6,1.5,1.6s-0.6,1.5-1.5,1.5H71.5z"/>
<path class="st0" d="M126.4,29.4c0,0.9-0.5,1.4-1.4,1.4h-6.8v4.7c0,1.7-1,2.6-2.8,2.6s-2.8-0.9-2.8-2.6v-4.7h-7
	c-1.2,4.4-5.8,7.2-12.6,7.4c-0.9,0-1.4-0.4-1.5-1.1s0.3-1.3,1.2-1.5c4.2-1,6.1-2.5,7-4.7h-6.9c-0.9,0-1.4-0.5-1.4-1.4
	s0.5-1.4,1.4-1.4H125C125.9,28,126.4,28.5,126.4,29.4z M94.5,24.5v-4.7c0-1.6,0.9-2.5,2.4-2.5h23.8c1.6,0,2.4,0.9,2.4,2.5v4.7
	c0,1.6-0.9,2.4-2.4,2.4H96.9C95.4,26.9,94.5,26.1,94.5,24.5z M97,13.9V6.3c0-1.6,0.8-2.4,2.4-2.4h5.7c0.1-0.6,0.2-1.2,0.2-1.9
	c0.2-1.3,1.2-2.1,2.9-1.7c1.4,0.4,2.1,1.4,1.4,2.8c-0.2,0.3-0.3,0.5-0.4,0.8h8.8c1.6,0,2.4,0.9,2.4,2.4v7.6c0,1.6-0.8,2.4-2.4,2.4
	H99.5C97.9,16.4,97,15.5,97,13.9z M99.9,21h6.3v-1.1h-5.8c-0.3,0-0.5,0.2-0.5,0.5V21z M99.9,23.9c0,0.3,0.2,0.5,0.5,0.5h5.8v-1.2
	h-6.3V23.9z M102.2,7.5h13.2V6.9c0-0.3-0.2-0.5-0.5-0.5h-12.3c-0.3,0-0.5,0.2-0.5,0.5v0.6H102.2z M102.2,10.6h13.2v-1h-13.2V10.6z
	 M102.2,13.3c0,0.3,0.2,0.5,0.5,0.5H115c0.3,0,0.5-0.2,0.5-0.5v-0.7h-13.2v0.7H102.2z M111.5,21h6.3v-0.6c0-0.3-0.2-0.5-0.5-0.5
	h-5.8V21z M111.5,24.4h5.8c0.3,0,0.5-0.2,0.5-0.5v-0.8h-6.3V24.4z"/>
<path class="st0" d="M180.8,35.9c-0.6,2-2.3,2.4-4.2,1.8c-5.7-1.8-10.6-6.3-12.3-11.2c-2.4,6.3-7.8,9.9-17.3,11.5
	c-0.9,0.2-1.5-0.2-1.7-1s0.2-1.3,1.1-1.6c6.5-2.1,10.2-4.6,12.1-8.9h-11.3c-1,0-1.6-0.6-1.6-1.6s0.6-1.6,1.6-1.6h3.1V16
	c0-1.6,0.9-2.5,2.4-2.5h7.4v-1.9c0-1.8,1-2.7,2.8-2.7s2.8,0.9,2.8,2.7v1.9h7.4c1.6,0,2.4,0.9,2.4,2.5v7.3h3c1,0,1.6,0.6,1.6,1.6
	s-0.6,1.6-1.6,1.6h-11c2.4,2.6,5.8,4.4,10.7,5.5C180.6,32.6,181.4,34.1,180.8,35.9z M145.4,6.3c0-1,0.6-1.6,1.6-1.6h6.2V3.1
	c0-1.7,1-2.6,2.8-2.6s2.8,0.8,2.8,2.6v1.6h8.6V3.1c0-1.7,1-2.5,2.8-2.5s2.8,0.8,2.8,2.5v1.6h6.2c1.1,0,1.7,0.5,1.7,1.6
	c0,1-0.6,1.6-1.7,1.6H173v1.8c0,1.7-1,2.4-2.8,2.4s-2.8-0.8-2.8-2.4V8h-8.6v1.8c0,1.7-1,2.4-2.8,2.4s-2.8-0.8-2.8-2.4V8H147
	C145.9,8,145.4,7.4,145.4,6.3z M159.5,23.3c0.4-1.9,0.6-4.1,0.6-6.6h-3.9c-0.3,0-0.5,0.2-0.5,0.5v6.2L159.5,23.3L159.5,23.3z
	 M165.8,16.7V17c0,2.3-0.2,4.4-0.6,6.3h5v-6.2c0-0.3-0.2-0.5-0.5-0.5h-3.9V16.7z"/>
<path class="st0" d="M226.1,33.9c0,1.9-0.7,3-3,3c-1.8,0.1-3.6,0-5.2-0.1c-5.2-0.3-9-1.3-11.8-3.5c-1.4,1.7-3,3.1-4.8,4.2
	c-0.6,0.4-1.2,0.3-1.6-0.3c-0.4-0.5-0.4-1.1,0.2-1.6c1.4-1.5,2.8-3.2,3.8-5c-1.4-2.1-2.4-4.8-3-8.4c-0.1-0.8,0.2-1.4,0.8-1.6
	s1.3,0,1.6,0.9c0.7,2.2,1.5,4,2.4,5.3c0.9-2.4,1.5-4.9,1.8-7.7c0-0.3-0.2-0.5-0.5-0.5h-0.7c-0.5,1.4-1.4,1.8-2.8,1.5
	c-1-0.2-1.5-0.8-1.6-1.6l-0.1,0.1c-0.7,0.6-1.5,1.1-2.3,1.6v13c0,4.3-3.8,5.6-8.7,3.4c-0.7-0.3-0.9-0.9-0.7-1.6
	c0.1-0.6,0.6-1,1.4-0.9c2.2,0.1,2.8-0.2,2.8-1.6v-9.6c-0.3,0.2-0.6,0.3-0.9,0.4c-1.7,0.7-3,0.3-3.5-1.5c-0.5-1.7,0.3-2.8,2-3.2
	c0.9-0.2,1.7-0.4,2.4-0.6v-7.2h-2.5c-1,0-1.5-0.6-1.5-1.5c0-1,0.5-1.5,1.5-1.5h2.5V3c0-1.6,0.8-2.4,2.6-2.4c1.7,0,2.6,0.8,2.6,2.4
	v4.8h1.9c1,0,1.5,0.6,1.5,1.5c0,1-0.5,1.5-1.5,1.5h-1.9v5.5l0.8-0.3c0.8-0.3,1.5,0,1.9,0.6l0.1,0.2c1-3.2,1.7-6.2,2.3-9.9
	c0-0.3-0.1-0.5-0.4-0.5h-1.5c-1,0-1.5-0.6-1.5-1.5s0.6-1.5,1.5-1.5h4.8c1.7,0,2.5,1,2.2,2.8c-0.6,3.3-1.3,6.2-2.4,9.5h2.1
	c1.8,0,3,1,2.8,2.9c-0.6,4.2-1.7,7.9-3.4,11c2.3,1.2,5.3,1.6,9.5,1.8c1.5,0,3.2,0,4.8-0.1C225.1,31.2,226.1,32.1,226.1,33.9z
	 M210.4,6.1c-0.1-0.7,0.3-1.2,1-1.4c2.8-0.6,5.6-1.6,8.8-3.4c1.3-0.7,2.7-0.5,3.5,1s0,2.8-1.5,3.3c-0.6,0.2-1.3,0.4-2,0.6v7.4h2.9
	c1,0,1.5,0.6,1.5,1.5c0,1-0.5,1.5-1.5,1.5h-2.9v9h3.7c1,0,1.5,0.5,1.5,1.4c0,1-0.5,1.6-1.5,1.6h-12.2c-1,0-1.6-0.6-1.6-1.6
	c0-0.9,0.6-1.4,1.6-1.4h3.3v-9h-2.5c-1,0-1.5-0.6-1.5-1.5s0.6-1.5,1.5-1.5h2.5V7.1c-1,0.1-2.1,0.2-3.2,0.2
	C210.9,7.3,210.5,6.9,210.4,6.1z"/>
<path class="st0" d="M270.6,29.4c0,0.9-0.5,1.4-1.4,1.4h-6.8v4.7c0,1.7-1,2.6-2.8,2.6s-2.8-0.9-2.8-2.6v-4.7h-7
	c-1.2,4.4-5.8,7.2-12.6,7.4c-0.9,0-1.4-0.4-1.5-1.1s0.3-1.3,1.2-1.5c4.2-1,6.1-2.5,7-4.7H237c-0.9,0-1.4-0.5-1.4-1.4
	s0.5-1.4,1.4-1.4h32.3C270,28,270.6,28.5,270.6,29.4z M238.6,24.5v-4.7c0-1.6,0.9-2.5,2.4-2.5h23.8c1.6,0,2.4,0.9,2.4,2.5v4.7
	c0,1.6-0.9,2.4-2.4,2.4H241C239.5,26.9,238.6,26.1,238.6,24.5z M241.2,13.9V6.3c0-1.6,0.8-2.4,2.4-2.4h5.7c0.1-0.6,0.2-1.2,0.2-1.9
	c0.2-1.3,1.2-2.1,2.9-1.7c1.4,0.4,2.1,1.4,1.4,2.8c-0.2,0.3-0.3,0.5-0.4,0.8h8.8c1.6,0,2.4,0.9,2.4,2.4v7.6c0,1.6-0.8,2.4-2.4,2.4
	h-18.6C242,16.4,241.2,15.5,241.2,13.9z M244,21h6.3v-1.1h-5.8c-0.3,0-0.5,0.2-0.5,0.5L244,21L244,21z M244,23.9
	c0,0.3,0.2,0.5,0.5,0.5h5.8v-1.2H244V23.9z M246.3,7.5h13.2V6.9c0-0.3-0.2-0.5-0.5-0.5h-12.3c-0.3,0-0.5,0.2-0.5,0.5L246.3,7.5
	L246.3,7.5z M246.3,10.6h13.2v-1h-13.2V10.6z M246.3,13.3c0,0.3,0.2,0.5,0.5,0.5H259c0.3,0,0.5-0.2,0.5-0.5v-0.7h-13.2V13.3z
	 M255.6,21h6.3v-0.6c0-0.3-0.2-0.5-0.5-0.5h-5.8V21z M255.6,24.4h5.8c0.3,0,0.5-0.2,0.5-0.5v-0.8h-6.3V24.4z"/>
<path class="st0" d="M311.2,14.9c0,1-0.5,1.6-1.5,1.6h-5.8c-0.9,1-1.9,1.8-2.8,2.7h5.9c1.6,0,2.4,0.9,2.4,2.4V36
	c0,1.4-0.9,2.2-2.5,2.2s-2.5-0.8-2.5-2.2v-0.8H299v1c0,1.4-0.9,2.2-2.5,2.2s-2.6-0.8-2.6-2.2V24c-0.8,0.4-1.6,0.8-2.4,1.1
	c-0.9,0.4-1.6,0.2-1.9-0.6c-0.3-0.7-0.1-1.4,0.8-1.8c3.2-1.8,5.8-3.8,8.1-6h-7.1c-1,0-1.5-0.6-1.5-1.6s0.6-1.6,1.5-1.6h5.3V9.3h-3.9
	c-1,0-1.5-0.6-1.5-1.6s0.6-1.6,1.5-1.6h3.9v-3c0-1.4,0.9-2.2,2.6-2.2s2.6,0.9,2.6,2.2v3h3.8l0,0c0.2-0.4,0.4-0.9,0.6-1.4
	c0.7-1.6,1.9-2,3.3-1.4s1.8,1.8,1.1,3.2c-1.2,2.4-2.5,4.7-4.1,6.7h3.1C310.7,13.3,311.2,13.9,311.2,14.9z M303.9,22.3h-4.4
	c-0.3,0-0.5,0.2-0.5,0.5v2.9h5.4v-2.9C304.4,22.5,304.2,22.3,303.9,22.3z M304.4,32.2v-3.6H299v3.6H304.4z M301.8,9.3v3.4
	c0.8-1.1,1.5-2.2,2.2-3.4C304,9.3,301.8,9.3,301.8,9.3z M317.4,31.4c-0.2-0.1-0.4-0.3-0.6-0.4v5.1c0,1.4-0.9,2.3-2.5,2.3
	s-2.5-0.8-2.5-2.3V3.7c0-1.4,0.9-2.3,2.5-2.3c1.3,0,2.1,0.6,2.4,1.5h3.4c0.8-0.9,2.3-1.2,3.6-0.6c1.4,0.6,1.9,1.7,1.4,3.8
	c-0.9,3.6-2.5,7.2-4.1,9.9c-0.2,0.2-0.2,0.6,0,0.8c3.2,3.6,4.6,7,4.7,10.5C325.9,32.9,321.7,33.6,317.4,31.4z M321,26.6
	c0-2.3-0.9-5.8-2.5-8.8c-0.6-1.1-0.6-1.9-0.2-3.2c0.8-2.6,1.6-5.6,2-8.2c0-0.3-0.2-0.5-0.5-0.5h-2.9v23c0.3-0.3,0.8-0.4,1.4-0.3
	C320.7,29,321.1,28.6,321,26.6z"/>
<path class="st0" d="M347.9,31.9c-0.7-0.8-1.5-1.6-2.2-2.3c-2.2,3.4-5,6.1-8.6,8.2c-0.8,0.4-1.5,0.4-1.9-0.3
	c-0.4-0.7-0.2-1.4,0.4-1.9c3-2.4,5.2-5.2,6.8-8.6c-0.5-0.4-1.1-0.8-1.6-1.2l0,0.2c-0.4,1.6-1.6,2.2-3.1,1.9
	c-1.5-0.4-2.1-1.4-1.7-3.1c0.9-3.5,1.7-8.1,2.3-12.7h-2.1c-1,0-1.6-0.6-1.6-1.6c0-1,0.5-1.6,1.6-1.6h2.6c0.3-2.1,0.6-4.1,0.8-6
	c0.2-1.5,1.1-2.3,2.8-2.1c1.7,0.1,2.5,1,2.3,2.6c-0.2,1.8-0.4,3.7-0.7,5.6h3.9c2,0,2.8,1,2.7,3.2c-0.4,5.3-1.3,9.8-2.9,13.6
	c1.3,0.7,2.5,1.5,3.6,2.3c1.6,1.2,1.8,2.5,0.6,3.9C350.8,33.4,349.2,33.4,347.9,31.9z M343.8,23.8c1.1-3.2,1.7-6.9,2.1-11.2
	c0-0.4-0.1-0.5-0.4-0.5h-1.8c-0.6,3.8-1.3,7.6-2,10.8C342.3,23.2,343,23.5,343.8,23.8z M370.7,19c0,1.1-0.6,1.7-1.6,1.7h-5.9v12.3
	c0,4.8-4.8,6.5-11.5,3.4c-0.8-0.4-1.1-0.9-0.9-1.7c0.2-0.8,0.8-1,1.7-1c4.5,0.4,5,0.1,5-2.2V20.7h-6c-1,0-1.6-0.6-1.6-1.7
	c0-1,0.6-1.6,1.6-1.6h6v-4.2c0-1.7,1-2.6,2.8-2.6c0.4,0,0.7,0,1,0.1c1.1-1.6,2-3.2,2.5-4.4c0.1-0.3,0-0.6-0.4-0.6h-10.9
	c-1,0-1.6-0.6-1.6-1.6c0-1,0.6-1.6,1.6-1.6h11.7c1.3-1,3.1-1.2,4.5-0.2c1.4,1,1.6,2.8,0.6,4.3c-1.5,2.3-4,4.9-6.1,6.6v4h5.9
	C370.1,17.4,370.7,18,370.7,19z"/>
<path class="st0" d="M395.6,35.5c-1.2-1.2-2.3-2.1-3.2-2.8c-0.6-0.5-0.8-1.1-0.4-1.8c0.1-0.2,0.2-0.4,0.4-0.5h-3.9l0.3,0.2
	c1.2,1,1.2,2.2,0.1,3.2c-2.4,2.1-5.2,3.6-7.8,4.3c-0.8,0.3-1.3,0.1-1.7-0.5c-0.3-0.6-0.2-1.3,0.4-1.8c1.9-1.2,3.9-2.8,5.6-4.9
	c0.2-0.2,0.4-0.5,0.6-0.6h-5c-0.8,0-1.4-0.5-1.4-1.4c0-0.9,0.5-1.3,1.4-1.3h3.6v-1.4h-2.3c-0.8,0-1.3-0.5-1.3-1.3
	c0-0.9,0.5-1.4,1.3-1.4h2.3v-1.3h-0.4c-1.6,0-2.5-0.9-2.5-2.4V15c0-1.6,0.9-2.4,2.5-2.4h13.1c1.6,0,2.4,0.8,2.4,2.4v4.9
	c0,1.6-0.9,2.4-2.4,2.4h-0.5v1.3h2.4c0.8,0,1.4,0.5,1.4,1.4c0,0.8-0.5,1.3-1.4,1.3h-2.4v1.4h3.5c0.9,0,1.4,0.4,1.4,1.3
	c0,0.9-0.5,1.4-1.4,1.4h-6c1.4,0.4,2.5,0.9,3.7,1.5c1.6,0.8,1.8,2,0.9,3.3C398,36.5,396.7,36.7,395.6,35.5z M409.4,37.9
	c-1.7-0.7-3.1-2.1-4.3-4.1c-1.5,1.8-3.2,3.1-5,4.1c-0.7,0.4-1.3,0.2-1.7-0.4c-0.4-0.6-0.3-1.2,0.3-1.8c1.8-1.7,3.4-3.6,4.7-5.9
	c-1.6-4.7-2.3-11.1-2.4-18.6h-19.9c-1,0-1.5-0.6-1.5-1.5s0.6-1.5,1.5-1.5h6.9V7H383c-0.9,0-1.4-0.5-1.4-1.4s0.5-1.4,1.4-1.4h5.2V3.3
	c0-1.5,1-2.3,2.7-2.3c1.7,0,2.6,0.8,2.6,2.3v0.8h5.3c0.8,0,1.4,0.5,1.4,1.4S399.7,7,398.8,7h-5.3v1.4h7.7c0-1.6,0-3.3,0-5.1
	c0-1.4,0.9-2.2,2.5-2.2c1.6,0,2.5,0.8,2.5,2.2c0,1.9,0,3.5,0,5.1h3.1c-0.2-0.2-0.4-0.5-0.5-0.9c-0.6-1.7-1.1-2.9-1.6-4.1
	c-0.3-0.7-0.2-1.3,0.4-1.7c0.6-0.4,1.3-0.4,1.8,0.2c1.1,1,2.2,2.2,3.1,3.7c0.7,1,0.6,2.1-0.8,2.8h1.4c1,0,1.5,0.6,1.5,1.5
	s-0.6,1.5-1.5,1.5h-6.9c0.1,3.8,0.3,7.4,0.8,10.6c0.6-1.9,1-3.9,1.4-6.1c0.3-1.7,1.3-2.3,2.9-2c1.6,0.4,2.1,1.7,1.7,3.2
	c-1.2,4.7-2.7,8.7-4.4,11.9c0.5,1.5,1.2,2.7,1.9,3.4c0.9,0.9,1.4,0.4,1.5-4.1c0-1,0.5-1.4,1.2-1.4c0.7,0,1.2,0.5,1.4,1.4
	C415.7,36.4,413.9,39.8,409.4,37.9z M386.2,16.3h2.4v-1h-1.9c-0.3,0-0.5,0.2-0.5,0.5V16.3z M386.2,19.3c0,0.3,0.2,0.5,0.5,0.5h1.9
	v-1.2h-2.4V19.3z M389.4,23.7h2.6v-1.3h-2.6V23.7z M389.4,27.8h2.6v-1.4h-2.6V27.8z M392.8,16.3h2.5v-0.6c0-0.3-0.2-0.5-0.5-0.5h-2
	V16.3z M392.8,19.8h2c0.3,0,0.5-0.2,0.5-0.5v-0.7h-2.5V19.8z"/>
</svg>
