<?xml version="1.0" encoding="utf-8"?>
<!-- Generator: Adobe Illustrator 22.0.0, SVG Export Plug-In . SVG Version: 6.00 Build 0)  -->
<svg version="1.1" id="圖層_1" xmlns="http://www.w3.org/2000/svg" xmlns:xlink="http://www.w3.org/1999/xlink" x="0px" y="0px"
	 viewBox="0 0 301.7 38.7" style="enable-background:new 0 0 301.7 38.7;" xml:space="preserve">
<style type="text/css">
	.st0{fill:#2B2B2B;}
</style>
<g>
	<path class="st0" d="M15,30.7c-0.4-0.6-0.9-1.3-1.4-2v7.2c0,1.5-0.9,2.3-2.6,2.3c-1.7,0-2.6-0.8-2.6-2.3v-6.4
		c-1.4,2-3.2,4.1-5.2,5.7c-0.7,0.5-1.4,0.5-1.8-0.1c-0.5-0.6-0.5-1.2,0.2-1.9c2.4-2.6,4.4-5.9,5.8-9.3H3.1c-1,0-1.5-0.6-1.5-1.6
		c0-1,0.5-1.5,1.5-1.5h5.2v-2c0-0.3,0-0.6,0.1-0.8H2.7c-1,0-1.5-0.6-1.5-1.6c0-1,0.6-1.6,1.5-1.6h3.4c-0.3-0.2-0.5-0.6-0.7-1
		C5,12.5,4.4,10.9,4,9.9C3.6,9.2,3.8,8.7,4.4,8.3H3.1c-1,0-1.5-0.6-1.5-1.6s0.5-1.6,1.5-1.6h4.8V2.4c0-1.4,1-2.2,2.8-2.2
		s2.8,0.8,2.8,2.2v2.7h4.4c1,0,1.5,0.6,1.5,1.6s-0.6,1.6-1.5,1.6h-2c0.1,0,0.2,0,0.3,0.1c1.5,0.5,1.8,1.7,1.1,3.1
		c-0.6,1.1-1.4,2.3-2.2,3.2h3.3c0.9,0,1.5,0.5,1.5,1.6c0,1-0.6,1.6-1.5,1.6h-4.8c0,0.2,0.1,0.5,0.1,0.8v2h4.3c1,0,1.5,0.6,1.5,1.5
		c0,1-0.5,1.6-1.5,1.6h-4.3v0.9c1.5,0.8,3.2,1.8,4.5,2.9c1.2,1,1.1,2.4,0.1,3.4C17.1,32,15.9,32,15,30.7z M8.3,14.7h3.3
		c0.6-1.6,1.1-3.4,1.4-5c0.2-0.8,0.6-1.2,1.2-1.4H5.9C6,8.3,6,8.4,6.1,8.4c0.9,0.8,2,2,2.9,3.2C9.8,12.8,9.5,14,8.3,14.7z
		 M37.3,15.2c0,1-0.6,1.6-1.5,1.6h-2.1v19c0,1.5-0.9,2.3-2.6,2.3c-1.6,0-2.6-0.8-2.6-2.3v-19h-3c0,9.3-1.7,16.3-6.7,20.7
		c-0.6,0.5-1.4,0.6-2,0c-0.6-0.5-0.5-1.2,0-1.9c2.8-4.3,3.5-8.5,3.5-17.2V5.3c0-1.7,0.9-2.4,2.6-2.4c1.2,0,2,0.4,2.4,1.2
		c2.2-0.6,4.3-1.6,6.5-2.9c1.4-0.8,3-0.7,3.8,0.9c0.8,1.8,0.2,3.1-1.5,3.6c-2.4,0.7-5.6,1.1-8.6,1.2v6.7h10.3
		C36.8,13.6,37.3,14.2,37.3,15.2z"/>
	<path class="st0" d="M51.5,27.3c-0.9,2.9-2.8,5.8-4.4,7.4c-0.6,0.6-1.3,0.7-1.9,0.2c-0.7-0.5-0.8-1.1-0.4-1.8
		c1-1.7,1.8-4.2,2.3-6.9c0.3-1.4,1.4-2,2.8-1.6C51.6,25,51.9,26.2,51.5,27.3z M57.8,23.6v10.1c0,4-4.5,5.2-8.9,3.1
		c-0.8-0.4-0.9-1-0.7-1.7c0.2-0.6,0.6-0.9,1.4-0.8c2.6,0.2,2.9,0.1,2.9-1.2v-9.5h-5.6c-1,0-1.5-0.6-1.5-1.6c0-0.9,0.5-1.4,1.5-1.4
		h16c1,0,1.6,0.5,1.6,1.4c0,1-0.6,1.6-1.6,1.6H57.8z M45.4,6.6c0-1,0.5-1.5,1.5-1.5h5.3V2.9c0-1.6,1-2.4,2.8-2.4
		c1.8,0,2.8,0.8,2.8,2.4v2.2h5.3c1,0,1.5,0.5,1.5,1.5c0,1-0.6,1.5-1.5,1.5h-5.3v2.7h3.9c1,0,1.5,0.5,1.5,1.5c0,1-0.6,1.6-1.5,1.6
		H48.3c-1,0-1.5-0.6-1.5-1.6c0-0.9,0.5-1.5,1.5-1.5h4V8.1H47C45.9,8.1,45.4,7.6,45.4,6.6z M60.9,15.7c1,0,1.5,0.5,1.5,1.5
		c0,1-0.6,1.6-1.5,1.6H48.8c-1,0-1.5-0.6-1.5-1.6c0-1,0.5-1.5,1.5-1.5H60.9z M80.2,36.9c-1.3,1.2-3.1,1.2-4.5-0.7
		c-2.4-3.2-3.7-9.3-3.8-14.6c-0.7,7.1-4.1,12.7-10.1,16.1c-0.9,0.5-1.6,0.3-2.1-0.3c-0.5-0.7-0.3-1.4,0.4-2c1.2-1,2.2-2.2,3.1-3.4
		L63,32.2c-1.3,0.8-2.6,0.2-3-1.2c-0.4-1.5-0.8-3.1-1.4-4.6c-0.2-0.7,0-1.2,0.6-1.6c0.5-0.3,1.1-0.3,1.7,0.2c1.1,1.1,2.3,2.7,3.1,4
		c0.3,0.5,0.4,0.9,0.4,1.4c2.3-3.8,3.2-8.3,3.2-13.9v-1.8c0-1.6,1-2.5,2.8-2.5s2.8,0.9,2.8,2.5v2.1c0.6,6.3,2.6,11.3,7,15.7
		C81.6,33.9,81.7,35.6,80.2,36.9z M62.7,15.3c1.8-3.2,2.6-7.2,3-12.5c0.2-1.7,1.3-2.5,3.2-2.3c1.5,0.2,2.3,1.3,2,2.9
		c-0.2,1.3-0.5,2.6-0.9,3.8h5.4c0.9-0.9,2.2-1.2,3.7-0.6c1.5,0.7,1.9,2.3,1.2,3.9c-1.2,2.6-2.5,4.6-4.1,6.3
		c-0.6,0.6-1.2,0.7-1.8,0.3c-0.6-0.4-0.8-1-0.5-1.7c0.6-1.7,1.2-3.4,1.6-4.7c0.1-0.3-0.1-0.5-0.4-0.5h-6.2c-1.1,2.6-2.6,4.7-4.1,6.4
		c-0.6,0.6-1.2,0.7-1.7,0.3C62.5,16.6,62.3,16.1,62.7,15.3z"/>
	<path class="st0" d="M122.4,7.9v25.8c0,1.6-1,2.6-2.9,2.6c-1.8,0-2.9-1-2.9-2.6v-1.7H98v1.8c0,1.6-1.1,2.6-3,2.6
		c-1.9,0-2.9-1-2.9-2.6v-26c0-1.8,1-2.8,2.8-2.8h24.8C121.4,5.2,122.4,6.2,122.4,7.9z M116.6,28.6V9.1c0-0.3-0.2-0.5-0.5-0.5H98.5
		c-0.3,0-0.5,0.2-0.5,0.6v19.4H116.6z"/>
	<path class="st0" d="M169.2,30.9c0,1-0.6,1.6-1.6,1.6h-13.7v3.1c0,1.9-1,2.7-2.9,2.7s-2.9-0.8-2.9-2.7v-3.1h-12.7
		c-1,0-1.6-0.6-1.6-1.6c0-1,0.6-1.6,1.6-1.6H148v-1.6h-7.4c-1.6,0-2.4-0.8-2.4-2.4v-6.8c0-1.6,0.8-2.4,2.4-2.4h7.3v-5.6h-9.6
		c-1.6,0-2.4-0.9-2.4-2.4V4.5c0-1.6,0.9-2.4,2.4-2.4h25.9c1.6,0,2.4,0.9,2.4,2.4V8c0,1.6-0.8,2.4-2.4,2.4h-10.7v1.3h13
		c1,0,1.5,0.5,1.5,1.5c0,1-0.5,1.5-1.5,1.5h-13v1.4h8.3c1.6,0,2.5,0.9,2.5,2.4v6.8c0,1.6-0.9,2.4-2.5,2.4h-8.1v1.6h13.7
		C168.6,29.3,169.2,29.9,169.2,30.9z M144.7,4.9h-2.9c-0.3,0-0.5,0.2-0.5,0.5v1.8c0,0.3,0.2,0.5,0.5,0.5h2.9V4.9z M143.7,20.5h15.2
		v-1.1c0-0.3-0.2-0.5-0.5-0.5h-14.3c-0.3,0-0.5,0.2-0.5,0.5V20.5z M144.2,24.9h14.3c0.3,0,0.5-0.2,0.5-0.5v-1.2h-15.2v1.2
		C143.7,24.7,143.9,24.9,144.2,24.9z M149.7,7.6h3.2V4.9h-3.2V7.6z M157.9,7.6h2.9c0.3,0,0.5-0.2,0.5-0.5V5.4c0-0.3-0.2-0.5-0.5-0.5
		h-2.9V7.6z"/>
	<path class="st0" d="M213.3,34.5c-0.6,1.8-1.7,2.2-3.6,1.6c-3.9-1.3-8.4-4.6-11.3-8.1v7.4c0,1.9-1,2.8-3,2.8
		c-1.9,0-2.9-0.9-2.9-2.8v-6.5c-3.1,3.1-8,6-13.3,7.5c-0.8,0.2-1.5,0-1.7-0.7c-0.3-0.8-0.1-1.4,0.8-1.8c4.4-2,8.5-4.9,11.4-8.6h-9.8
		c-1,0-1.6-0.6-1.6-1.6c0-1,0.6-1.6,1.6-1.6h12.6v-1.2c0-1.8,1.1-2.7,2.9-2.7c1.8,0,3,0.9,3,2.7V22H211c1.1,0,1.6,0.6,1.6,1.6
		c0,1-0.6,1.6-1.6,1.6h-11.5c3.1,2.4,7.5,4.6,12.1,5.9C213.2,31.6,213.8,32.9,213.3,34.5z M183,7.9h-3.3c-1,0-1.6-0.6-1.6-1.6
		s0.6-1.5,1.6-1.5h3.6c0-0.5,0-1,0.1-1.5c0.1-1.8,1-2.6,2.6-2.6c1.7,0,2.5,0.8,2.4,2.6c0,0.5,0,1-0.1,1.5h5c1.6,0,2.5,0.9,2.4,2.5
		c-0.1,3.1-0.3,5.8-0.5,7.4c-0.5,3.8-3.8,5.1-8.6,2.8c-0.8-0.4-0.9-1-0.7-1.7c0.2-0.7,0.8-1,1.6-0.8c2.1,0.3,2.6,0.2,2.8-1
		c0.2-1.5,0.4-3.8,0.4-5.6c0-0.3-0.2-0.5-0.5-0.5h-2.4c-1.1,6.8-3.9,10.1-7.7,12.1c-0.9,0.4-1.5,0.4-1.9-0.3c-0.5-0.7-0.4-1.3,0.3-2
		C180.9,15.5,182.3,12.9,183,7.9z M197.2,15.4V6c0-1.6,0.9-2.4,2.4-2.4h9.2c1.6,0,2.4,0.9,2.4,2.4v9.5c0,1.6-0.9,2.5-2.4,2.5h-9.2
		C198.1,17.9,197.2,17,197.2,15.4z M202.4,14.3c0,0.3,0.2,0.5,0.5,0.5h2.7c0.3,0,0.5-0.2,0.5-0.5V7.1c0-0.3-0.2-0.5-0.5-0.5h-2.7
		c-0.3,0-0.5,0.2-0.5,0.5V14.3z"/>
	<path class="st0" d="M223,10.2c-1,0-1.6-0.6-1.6-1.6c0-1,0.6-1.6,1.6-1.6h4.1V3.2c0-1.6,0.9-2.4,2.7-2.4c1.8,0,2.7,0.8,2.7,2.4V7
		h3.5c1,0,1.6,0.6,1.6,1.6c0,1-0.6,1.6-1.6,1.6H223z M236,14.1c0,1-0.6,1.5-1.5,1.5h-10.1c-1,0-1.5-0.6-1.5-1.6s0.5-1.5,1.5-1.5
		h10.1C235.4,12.6,236,13.1,236,14.1z M222.9,19.4c0-1,0.5-1.5,1.5-1.5h10.1c1,0,1.5,0.5,1.5,1.5c0,1-0.6,1.6-1.5,1.6h-10.1
		C223.4,21,222.9,20.4,222.9,19.4z M233.5,34.7h-5.6v1.2c0,1.4-0.8,2.2-2.4,2.2c-1.6,0-2.4-0.8-2.4-2.2V25.7c0-1.6,0.8-2.4,2.4-2.4
		h8.2c1.6,0,2.4,0.8,2.4,2.4v6.6C235.9,33.8,235.1,34.7,233.5,34.7z M231.2,26.8c0-0.3-0.2-0.5-0.5-0.5h-2.5c-0.2,0-0.4,0.2-0.4,0.5
		v4.9h2.9c0.3,0,0.5-0.2,0.5-0.5V26.8z M257.2,36.4c-0.6,1.6-1.9,2.1-3.7,1.4c-2.8-1-5.2-2.6-7.4-4.6c-3.1,2.3-6.7,4-10.5,4.8
		c-0.8,0.2-1.5-0.1-1.7-0.8c-0.3-0.8-0.1-1.5,0.7-1.9c3.2-1.3,6.1-3.1,8.6-5.2c-2-2.6-3.5-5.6-4.2-8.8h-0.6c-1,0-1.5-0.6-1.5-1.6
		c0-0.9,0.6-1.6,1.5-1.6h13.9c2.2,0,3.1,1.6,2.4,3.6c-1,3-2.7,5.8-5,8.3c1.7,1.1,3.6,2,5.7,2.8C257.2,33.5,257.7,34.8,257.2,36.4z
		 M239.1,7.3V4.4c0-1.6,0.8-2.4,2.4-2.4h8.5c1.6,0,2.5,0.9,2.5,2.4v6.7c0,1.1,0.2,1.3,1,1.3c0.5,0,1-0.1,1.6-0.2
		c1-0.3,1.9,0.1,2.3,1.2c0.4,1.3,0,2.2-1.2,2.7c-1.2,0.6-2.3,0.7-4.2,0.6c-3.6,0-4.5-1-4.5-4.2v-7c0-0.3-0.2-0.5-0.5-0.5h-2.4
		c-0.3,0-0.5,0.2-0.5,0.5v1.8c0,5.1-1.8,8.7-6.2,10.4c-0.7,0.3-1.4,0.2-1.7-0.4c-0.3-0.6-0.3-1.2,0.3-1.7
		C238.6,13.7,239.1,11.6,239.1,7.3z M241.9,21.3c1,2.2,2.4,4.2,4.1,5.9c1.4-1.7,2.4-3.4,3-5.3c0.1-0.4,0-0.6-0.4-0.6H241.9z"/>
	<path class="st0" d="M281.2,10.5h-14.1c-1,0-1.5-0.6-1.5-1.6c0-1,0.5-1.6,1.5-1.6h4.5V3c0-1.5,1-2.5,2.8-2.5c1.8,0,2.8,1,2.8,2.5
		v4.2h4.1c1,0,1.6,0.6,1.6,1.6C282.8,9.9,282.2,10.5,281.2,10.5z M281.1,14.5c0,1-0.5,1.6-1.5,1.6h-10.9c-1,0-1.5-0.6-1.5-1.6
		s0.6-1.5,1.5-1.5h10.9C280.6,13,281.1,13.5,281.1,14.5z M281.1,20c0,1-0.6,1.6-1.5,1.6h-10.9c-1,0-1.5-0.6-1.5-1.6
		c0-1,0.6-1.5,1.5-1.5h10.9C280.5,18.4,281.1,18.9,281.1,20z M281,26.5v9.4c0,1.4-0.8,2.2-2.5,2.2c-1.6,0-2.4-0.7-2.4-2.2v-0.8h-3.9
		v0.8c0,1.4-0.8,2.2-2.4,2.2c-1.6,0-2.6-0.8-2.6-2.2v-9.4c0-1.6,0.9-2.4,2.5-2.4h8.9C280.1,24.1,281,25,281,26.5z M276.1,32v-4.4
		c0-0.3-0.2-0.5-0.5-0.5h-2.9c-0.3,0-0.5,0.2-0.5,0.5V32H276.1z M301.7,14.9c0,1.1-0.6,1.7-1.7,1.7h-5.4v19.1c0,1.7-1,2.6-2.9,2.6
		c-1.8,0-2.8-0.9-2.8-2.6V16.5h-5.4c-1.1,0-1.7-0.6-1.7-1.7c0-1,0.6-1.7,1.7-1.7h5.4V3c0-1.7,1-2.6,2.8-2.6c1.9,0,2.9,0.9,2.9,2.6
		v10.2h5.4C301.1,13.2,301.7,13.8,301.7,14.9z"/>
</g>
</svg>
