<?xml version="1.0" encoding="utf-8"?>
<!-- Generator: Adobe Illustrator 22.0.0, SVG Export Plug-In . SVG Version: 6.00 Build 0)  -->
<svg version="1.1" id="圖層_1" xmlns="http://www.w3.org/2000/svg" xmlns:xlink="http://www.w3.org/1999/xlink" x="0px" y="0px"
	 viewBox="0 0 280.3 38.7" style="enable-background:new 0 0 280.3 38.7;" xml:space="preserve">
<style type="text/css">
	.st0{enable-background:new    ;}
	.st1{fill:#2B2B2B;}
</style>
<g class="st0">
	<path class="st1" d="M36.3,34.1c0,1.8-1,2.7-2.8,2.8c-3.6,0.2-7,0.2-11,0c-8.9-0.4-13.9-2.2-16.8-6.7c-0.6,2.9-1.7,5.3-3.1,7.1
		c-0.5,0.7-1.3,0.9-1.9,0.5c-0.7-0.4-0.8-1-0.5-1.8c1.4-3.4,1.5-8.3,1.5-14.9c0-1.7,1-2.5,2.4-2.5c1.5,0,2.4,0.8,2.4,2.5
		c0,1.9-0.1,3.6-0.2,5.2c0.4,0.6,0.8,1.1,1.3,1.6V16H2c-1,0-1.5-0.6-1.5-1.5C0.4,13.5,1,13,2,13h5.2V9.1H3c-1,0-1.5-0.6-1.5-1.5
		S2.1,6.2,3,6.2h4.1V3.8c0-1.7,0.9-2.7,2.7-2.7c1.8,0,2.7,1,2.7,2.7v2.4h3.5c1,0,1.5,0.5,1.5,1.4s-0.6,1.5-1.5,1.5h-3.5V13h4.1
		c0.8,0,1.4,0.4,1.5,1.2c1.9-2.1,3-4.7,3.3-8.5h-2.9c-0.9,0-1.5-0.6-1.5-1.5c0-0.9,0.6-1.4,1.5-1.4h13.6c1.6,0,2.4,0.9,2.4,2.5
		c0,3.1-0.2,5.9-0.5,7.9c-0.5,3.8-4.2,4.7-8.6,2.6c-0.9-0.5-1.2-1-0.9-1.8c0.2-0.7,0.8-0.9,1.6-0.8c2.4,0.4,3,0,3.1-1.4
		c0.2-1.5,0.3-3.7,0.3-5.6c0-0.3-0.2-0.5-0.5-0.5h-2.5c-0.8,5.6-3.8,9.9-8.6,12.2c-0.7,0.4-1.3,0.2-1.7-0.4c-0.3-0.5-0.3-1,0-1.4
		h-3.3v4.7h3c1,0,1.5,0.5,1.5,1.4c0,1-0.5,1.5-1.5,1.5h-3V31c2.3,0.6,5.2,0.8,8.8,1c4,0.1,8,0,11.4-0.3
		C35.3,31.5,36.3,32.3,36.3,34.1z M31.6,17.9c1.6,0,2.4,0.8,2.4,2.4v7.4c0,1.6-0.9,2.4-2.4,2.4H20.5c-1.6,0-2.4-0.8-2.4-2.4v-7.4
		c0-1.6,0.9-2.4,2.4-2.4H31.6z M29,21.3c0-0.3-0.2-0.5-0.5-0.5h-4.8c-0.3,0-0.5,0.2-0.5,0.5v5.6c0,0.3,0.2,0.5,0.5,0.5h4.8
		c0.3,0,0.5-0.2,0.5-0.5V21.3z"/>
	<path class="st1" d="M56.2,31v5c0,1.5-1,2.3-2.6,2.3C52,38.3,51,37.5,51,36v-5h-4c-1,0-1.6-0.6-1.6-1.5c0-1,0.6-1.6,1.6-1.6h4v-2.6
		h-1.8c-1.6,0-2.5-0.9-2.5-2.5v-9.4c0-1.6,0.9-2.4,2.5-2.4H51V8.8h-3.8c-1,0-1.6-0.6-1.6-1.6c0-1,0.5-1.5,1.6-1.5H51V2.9
		c0-1.5,0.9-2.3,2.6-2.3c1.6,0,2.6,0.8,2.6,2.3v2.8h3.6c1,0,1.6,0.6,1.6,1.5c0,1-0.6,1.6-1.6,1.6h-3.6V11H58c1.6,0,2.4,0.8,2.4,2.4
		v9.4c0,1.6-0.9,2.5-2.4,2.5h-1.8v2.6h4.2c1,0,1.5,0.6,1.5,1.6S61.4,31,60.4,31H56.2z M50.4,16.6H52V14h-1c-0.3,0-0.5,0.2-0.5,0.5
		V16.6z M50.9,22.3h1v-2.8h-1.5v2.3C50.4,22.1,50.6,22.3,50.9,22.3z M56.3,14h-1v2.6h1.5v-2.1C56.8,14.2,56.6,14,56.3,14z
		 M56.8,19.5h-1.5v2.8h1c0.3,0,0.5-0.2,0.5-0.5V19.5z M81.4,35.3c0,1-0.6,1.6-1.6,1.6H61.2c-1,0-1.6-0.6-1.6-1.6s0.6-1.6,1.6-1.6
		h6.9v-7.1h-5.2c-1,0-1.5-0.6-1.5-1.5c0-1,0.6-1.5,1.5-1.5h15.8c1,0,1.5,0.6,1.5,1.5c0,1-0.5,1.5-1.5,1.5h-5v7.1h6.1
		C80.8,33.7,81.4,34.3,81.4,35.3z M61.2,4.2c0-1,0.6-1.5,1.5-1.5h16.4c1,0,1.6,0.6,1.6,1.5s-0.6,1.5-1.6,1.5H62.8
		C61.8,5.7,61.2,5.1,61.2,4.2z M64.3,14.8c1.3,1.2,2.4,2.6,3.4,4.2c0.8,1.5,0.5,2.8-1,3.5c-1.6,0.8-2.9,0-3.3-1.8
		c-0.4-1.6-1-3.3-1.7-4.8c-0.5-1.2-0.5-2.1,0-3.2c0.6-1.2,1.2-3,1.6-4.6c0.4-1.4,1.5-2.2,3.2-1.5c1.6,0.6,1.9,1.8,1.1,3.2
		c-0.9,1.6-2,2.9-3.2,4C64,14.1,64,14.5,64.3,14.8z M69.3,20.7c-0.4-1.6-1-3.2-1.6-4.8c-0.5-1.2-0.5-2.1,0-3.2
		c0.6-1.2,1.2-3,1.6-4.6c0.4-1.4,1.5-2.2,3.2-1.5c1.6,0.6,1.9,1.8,1.1,3.2c-0.9,1.6-2,2.9-3.2,4c-0.4,0.3-0.4,0.7,0,1
		c1.2,1.1,2.4,2.5,3.3,4.2c0.9,1.5,0.5,2.8-1,3.5C71,23.1,69.8,22.4,69.3,20.7z M75.4,20.6c-0.4-1.5-1-3.2-1.7-4.7
		c-0.5-1.2-0.4-2.1,0-3.2c0.6-1.2,1.2-3,1.6-4.6c0.4-1.4,1.6-2.1,3.2-1.5c1.6,0.6,1.9,1.8,1.2,3.2c-0.9,1.6-2,2.9-3.2,3.9
		c-0.4,0.3-0.4,0.7,0,1c1.2,1.1,2.4,2.5,3.3,4.1c0.8,1.5,0.5,2.8-1,3.5C77.1,23.1,75.8,22.4,75.4,20.6z"/>
	<path class="st1" d="M115.9,5.2c-0.7,3.1-1.5,6.3-2.4,9.4h9.4c1.6,0,2.6,1,2.5,2.7c-0.4,7-1.2,12.7-2,16.2
		c-1.2,5.4-6.7,6.4-14.1,1.9c-0.8-0.5-1-1.2-0.7-2c0.3-0.8,1-1,1.9-0.8c5.9,1.4,6.8,1,7.3-1.5c0.6-3.1,1.2-7.4,1.6-12.8
		c0-0.3-0.2-0.6-0.5-0.6h-6.4c-0.2,0.7-0.4,1.3-0.6,2c-0.7,2-1.9,2.6-3.8,2c-1.8-0.5-2.3-1.5-1.7-3.6c1.2-4,2.4-8.6,3.3-13h-3.6
		c0.4,0.2,0.6,0.7,0.6,1.3c0,1-0.6,1.5-1.5,1.5h-4v16.4c1.6-0.4,3-0.9,4.4-1.4c0.8-0.3,1.6,0,1.9,0.6c0.4,0.7,0.2,1.5-0.6,2
		c-3.3,2.2-8.6,4.8-13.4,6.3c-1.6,0.5-3.1-0.2-3.4-2.2c-0.3-1.8,0.5-2.9,2.3-3.2l3.1-0.6V8h-3.7c-1,0-1.5-0.6-1.5-1.5
		c0-1,0.5-1.5,1.5-1.5h13.3c-0.4-0.2-0.6-0.7-0.6-1.3c0-1,0.6-1.6,1.5-1.6h18.7c1,0,1.5,0.6,1.5,1.6c0,1-0.6,1.5-1.5,1.5H115.9z"/>
	<path class="st1" d="M162.6,30.1c-0.6,2.2-1.8,5.1-3.1,6.9c-1,1.4-2.8,1.8-4.1,0.5c-1.3-1.3-1-2.8,0-3.8c1.7-1.5,3.2-3.3,4.4-5
		c0.5-0.8,1.4-1,2-0.6C162.6,28.5,162.9,29.1,162.6,30.1z M160.2,15.1v-3.9c-1,0.9-2.1,1.6-3,2.2c-0.7,0.4-1.4,0.4-1.9-0.2
		c-0.5-0.6-0.4-1.2,0.2-1.9c2.2-2.2,4.2-5.5,5.8-9.2c0.7-1.6,2.1-2,3.8-1.4c1.8,0.6,1.9,2,1.1,3.6c-0.3,0.5-0.6,1-1,1.6h21.9
		c1,0,1.6,0.6,1.6,1.6S188.1,9,187.1,9h-2.4v6.1h3.8c1,0,1.6,0.6,1.6,1.6c0,1.1-0.6,1.7-1.6,1.7h-3.8v6h3.5c1,0,1.6,0.6,1.6,1.6
		c0,1-0.6,1.6-1.6,1.6h-31.1c-1,0-1.6-0.6-1.6-1.6c0-1,0.6-1.6,1.6-1.6h3.1v-6h-3.6c-1,0-1.6-0.6-1.6-1.7c0-1,0.6-1.6,1.6-1.6H160.2
		z M164.8,15.1h2.1V9h-2.1V15.1z M164.8,24.3h2.1v-6h-2.1V24.3z M171.4,34.6c0.6,1.6,0,3-1.8,3.4c-1.7,0.4-2.8-0.4-3-2.1
		c-0.3-2.3-0.7-4.5-1-6c-0.1-0.8,0.2-1.3,0.8-1.6c0.7-0.3,1.3,0,1.8,0.7C169.4,30.4,170.6,32.5,171.4,34.6z M173.4,15.1V9h-2v6.1
		H173.4z M171.4,18.3v6h2v-6H171.4z M180.2,33.7c1.1,1.7,0.7,3.3-1,4c-1.7,0.6-3,0-3.5-2.1c-0.5-1.8-1.2-3.9-1.7-5.5
		c-0.2-0.7,0-1.4,0.6-1.8c0.6-0.3,1.2-0.2,1.8,0.4C177.8,30,179.3,32,180.2,33.7z M180.1,9H178v6.1h2.2V9z M180.1,18.3H178v6h2.2
		V18.3z M189,37.4c-1.6,1-3.1,0.3-3.8-1.5c-0.8-2.2-1.7-4.3-2.4-5.8c-0.3-0.7-0.2-1.4,0.5-1.8c0.6-0.4,1.2-0.4,1.9,0.2
		c1.4,1.2,3.3,3.1,4.5,4.9C190.8,35,190.7,36.4,189,37.4z"/>
	<path class="st1" d="M206.5,15.1c0,11.3-1,17.6-4.6,22.1c-0.6,0.7-1.2,0.8-1.8,0.4c-0.7-0.4-0.9-1-0.6-1.8c1.7-4.4,2-11,2-20.6V4.5
		c0-1.6,0.9-2.5,2.5-2.5h29.6c1,0,1.5,0.6,1.5,1.5c0,1-0.5,1.5-1.5,1.5H207c-0.3,0-0.5,0.2-0.5,0.5V15.1z M235.4,35.8
		c0,1-0.6,1.6-1.6,1.6h-27.8c-1,0-1.6-0.6-1.6-1.6s0.6-1.6,1.6-1.6h11v-2.1h-8.4c-1,0-1.5-0.6-1.5-1.5c0-1,0.6-1.5,1.5-1.5h8.4v-0.7
		c0-1.6,1-2.3,2.8-2.3c0.4,0,0.7,0,1,0.1c0,0,0-0.1-0.1-0.1c-0.4-0.6-0.4-1.1,0.2-1.7c2-2.2,3.3-5.2,3.6-9.6h-2.6
		c-0.9,0-1.4-0.5-1.4-1.4c0-0.8,0.5-1.4,1.4-1.4h2.7V7.3c0-1.3,0.8-2,2.3-2c1.4,0,2.2,0.7,2.2,2V12v0h3.8c0.9,0,1.4,0.5,1.4,1.4
		c0,0.9-0.5,1.4-1.4,1.4h-3.6c0.8,2.9,2.5,5.6,4.9,8c1,1,1,2.4-0.1,3.2c-1.1,1-2.4,0.8-3.4-0.5c-1.3-1.7-2.1-4.2-2.5-7.1
		c-1,3.4-3,6.2-5.7,7.9c-0.3,0.2-0.5,0.2-0.8,0.3c0.6,0.4,0.8,1,0.8,1.8v0.7h8.5c1,0,1.5,0.5,1.5,1.5c0,1-0.6,1.5-1.5,1.5h-8.5v2.1
		h11.2C234.9,34.2,235.4,34.8,235.4,35.8z M216.5,22.8h-5.1v2.4c0,1.2-0.7,1.8-2,1.8c-1.3,0-2.1-0.6-2.1-1.8v-8.3
		c0-1.5,0.8-2.3,2.2-2.3h8.8c1.5,0,2.3,0.8,2.3,2.3v6.3c0,2.8-3,4.1-6.8,2.7c-0.8-0.3-1-0.8-0.9-1.4c0.1-0.6,0.7-0.9,1.2-0.8
		C216,23.9,216.4,23.7,216.5,22.8z M207.7,11.5V8.1c0-1.5,0.8-2.3,2.2-2.3h8c1.5,0,2.2,0.8,2.2,2.3v3.4c0,1.4-0.8,2.2-2.2,2.2h-8
		C208.5,13.8,207.7,13,207.7,11.5z M211.4,17.6h5.1v-0.4c0-0.3-0.2-0.5-0.5-0.5h-4.2c-0.3,0-0.5,0.2-0.5,0.5V17.6z M211.4,20.7h5.1
		v-0.9h-5.1V20.7z M211.8,8.8h4.4V8.4c0-0.3-0.2-0.5-0.5-0.5h-3.4c-0.3,0-0.5,0.2-0.5,0.5V8.8z M211.8,11.2c0,0.3,0.2,0.5,0.5,0.5
		h3.4c0.3,0,0.5-0.2,0.5-0.5v-0.4h-4.4V11.2z M234,8.9c0.6,0.9,0.5,1.7-0.4,2.3c-1,0.6-1.9,0.4-2.4-0.6c-0.4-1-1.1-2.2-1.6-3
		c-0.4-0.6-0.2-1.1,0.2-1.5c0.4-0.4,1-0.4,1.5,0C232.3,6.8,233.4,7.9,234,8.9z"/>
	<path class="st1" d="M255.2,13.3c0,13.3-1.4,19.8-7,24.6c-0.6,0.6-1.3,0.6-1.8,0.1c-0.6-0.6-0.6-1.2-0.2-1.9
		c2.1-3.3,3-6.1,3.4-11.2c-0.5,0.6-1.1,1.2-1.6,1.6c-1.2,1.1-2.4,0.9-3.3-0.4c-0.8-1.2-0.6-2.4,0.6-3.1c1.2-0.7,3.1-1.9,4.4-2.9
		c0-0.9,0-1.9,0-3c-0.3,0.3-0.6,0.5-1.1,0.6c-1.4,0.5-2.4-0.2-2.7-1.8c-0.3-2.1-0.9-4.2-1.5-6.2c-0.2-0.8,0-1.4,0.7-1.6
		c0.7-0.3,1.2-0.1,1.7,0.6c1.1,1.4,2.2,3.3,3,5.3V7.4c0-1.6,0.9-2.4,2.5-2.4h10.1V3.3c0-1.6,1-2.7,3-2.7c1.9,0,3,1,3,2.7v1.6h10.2
		c1,0,1.6,0.6,1.6,1.6c0,1-0.6,1.6-1.6,1.6h-22.8c-0.3,0-0.5,0.2-0.5,0.5V13.3z M280.1,35.9c-0.6,1.7-2.2,2.3-4,1.5
		c-5.6-2.4-9.3-7.4-11.2-14h-2.4v8.2c1.1-0.3,2.1-0.6,3.2-0.9c0.8-0.3,1.4-0.1,1.7,0.6c0.4,0.6,0.2,1.3-0.6,1.8
		c-2.9,1.8-6.9,3.5-10.4,4.6c-1.8,0.5-3-0.2-3.3-1.9c-0.3-1.6,0.4-2.6,2.1-2.9c0.7-0.1,1.3-0.2,2-0.3V12.2c0-1.6,0.9-2.4,2.4-2.4
		H274c1.6,0,2.4,0.8,2.4,2.4V21c0,1.6-0.9,2.4-2.4,2.4h-6.4c0.9,1.6,2,3,3.2,4.3c1-0.8,2.1-1.8,3.2-2.8c1.2-1.2,2.3-1.4,3.4-0.2
		c1.1,1.2,1,2.5-0.6,3.3c-1.3,0.7-2.6,1.2-3.8,1.6c1.5,1.1,3.2,2,5,2.6C280,33,280.7,34.2,280.1,35.9z M262.5,15.1h8.7v-2
		c0-0.3-0.2-0.5-0.5-0.5H263c-0.3,0-0.5,0.2-0.5,0.5V15.1z M262.5,20.5h8.2c0.3,0,0.5-0.2,0.5-0.5v-2h-8.7V20.5z"/>
</g>
</svg>
