<?xml version="1.0" encoding="utf-8"?>
<!-- Generator: Adobe Illustrator 22.0.0, SVG Export Plug-In . SVG Version: 6.00 Build 0)  -->
<svg version="1.1" id="圖層_1" xmlns="http://www.w3.org/2000/svg" xmlns:xlink="http://www.w3.org/1999/xlink" x="0px" y="0px"
	 viewBox="0 0 259.9 38.7" style="enable-background:new 0 0 259.9 38.7;" xml:space="preserve">
<style type="text/css">
	.st0{enable-background:new    ;}
	.st1{fill:#2B2B2B;}
</style>
<g class="st0">
	<path class="st1" d="M31,9.9V36c0,1.7-1,2.5-2.9,2.5c-1.8,0-2.9-0.8-2.9-2.5v-0.8H8.4V36c0,1.7-1,2.5-2.9,2.5
		c-1.8,0-2.9-0.8-2.9-2.5V9.9c0-1.8,1-2.8,2.7-2.8h7c0.2-1.4,0.4-2.8,0.6-4.4c0.2-1.8,1.4-2.8,3.7-2.5c2.2,0.4,3,2.1,2.2,3.8
		c-0.6,1.2-1.1,2.2-1.8,3h11.2C30,7.1,31,8.1,31,9.9z M8.4,11v4.4h16.8V11c0-0.3-0.2-0.5-0.5-0.5H8.9C8.6,10.5,8.4,10.7,8.4,11z
		 M8.4,18.5v5h16.8v-5H8.4z M25.2,31.8v-5H8.4v5H25.2z"/>
	<path class="st1" d="M55.3,27.1c-0.3-0.7-0.1-1.3,0.6-1.8c4.5-2.8,6.9-6.1,8-12h-2.2c-0.2,0-0.3,0-0.4,0
		c-2.5,7.6-7.3,12.6-14.4,15.6c-0.9,0.4-1.4,0-1.8-0.7c-0.3-0.7-0.1-1.3,0.7-1.8c6.4-4,10.3-9.4,11.6-17.4c0-0.4-0.2-0.6-0.5-0.6
		h-3.5c-0.2,0.6-0.5,1.2-0.8,1.8c0.9,0.4,1.8,1,2.7,1.6c1.1,0.8,1.3,1.6,0.4,2.8c-0.8,1.1-2,1.1-2.9-0.1c-0.5-0.6-1-1.4-1.6-2
		c-0.5,0.8-1,1.4-1.5,2.1c1,0.6,1.9,1.2,2.7,2c1.1,1,1.2,2,0.1,3c-1,1-2.1,0.6-2.8-0.5c-0.6-0.9-1.2-1.7-1.8-2.5
		c-0.7,0.7-1.4,1.4-2.2,1.9c-0.6,0.4-1.2,0.5-1.7,0c-0.5-0.5-0.5-1.1,0-1.8c3-3.9,4.8-8.6,5.7-13.9c0.3-1.8,1.5-2.4,3.1-2.2
		c1.7,0.2,2.3,1.3,2,3.2l-0.4,1.6h2.9c0.8-1,2-1.3,3.2-1c1.7,0.5,2.4,1.6,2,3.5c-0.1,0.8-0.3,1.6-0.5,2.3h2.3c0.2-2,0.4-4.3,0.4-7
		c0-1.8,1.1-2.8,2.8-2.8c1.7,0,2.7,1,2.7,2.8c0,2.6-0.1,4.9-0.4,7h4.1c-0.5-0.2-0.8-0.7-1-1.4c-0.6-1.9-1.2-3.4-1.9-4.9
		c-0.3-0.7-0.2-1.3,0.4-1.7c0.6-0.4,1.2-0.4,1.8,0.1C74.5,3.4,76,5.2,77,6.8c1,1.4,0.5,2.6-0.9,3.3l-0.2,0.1h1.6
		c1,0,1.6,0.6,1.6,1.5c0,1-0.6,1.6-1.6,1.6h-6.1c1.4,3.7,3.8,6.5,7.5,9.2c1.6,1.1,1.6,2.9,0.6,4.2c-1,1.3-2.6,1.5-4.2,0.2
		c-3.2-2.6-5.2-6.9-6.1-12c-1.9,6.8-5.8,10.6-12,12.9C56.2,28.1,55.6,27.8,55.3,27.1z M52.5,30.2c-0.6,2.5-1.8,5-3.2,6.8
		c-1.1,1.4-2.6,1.7-3.8,0.4s-1.2-2.7,0.2-3.9c1.6-1.5,3-3.1,4-4.8c0.5-0.7,1.1-1,2-0.6C52.6,28.6,52.7,29.3,52.5,30.2z M60.9,34.7
		c0.7,1.8,0.1,3-1.7,3.4c-1.8,0.4-2.8-0.3-2.9-2.2c-0.2-2-0.5-4.4-0.8-6.1c-0.1-0.8,0.2-1.3,1-1.5c0.7-0.2,1.3,0,1.8,0.6
		C59.2,30.4,60.2,32.7,60.9,34.7z M69.6,34.1c1,1.7,0.6,3-1.1,3.7c-1.7,0.7-3,0.2-3.5-1.8c-0.5-2-1.4-4.7-2.1-6.4
		c-0.3-0.8-0.2-1.4,0.5-1.8c0.6-0.4,1.4-0.3,1.9,0.2C66.8,29.6,68.5,32.1,69.6,34.1z M78.9,33.7c1.1,1.6,0.8,3-0.8,4
		c-1.6,0.9-3,0.3-3.7-1.4c-1-2.5-2-4.9-3.2-7.1c-0.4-0.8-0.2-1.3,0.4-1.8c0.6-0.4,1.3-0.4,1.9,0.1C75.4,29.2,77.5,31.6,78.9,33.7z"
		/>
	<path class="st1" d="M124.3,35.8c-0.4,2-1.9,2.7-3.9,2.3c-4.9-1-9.1-2.7-12.6-5c-5,3-11,4.7-16.8,5.1c-1,0.1-1.5-0.3-1.7-1.1
		c-0.1-0.8,0.3-1.5,1.2-1.7c5-1.2,9.5-3,13.3-5.4c-3-2.9-5.3-6.4-6.7-10.4h-2.7c-1,0-1.6-0.6-1.6-1.6c0-1,0.6-1.7,1.6-1.7h9.4v-5.6
		H92c-1,0-1.6-0.7-1.6-1.8c0-1.2,0.6-1.8,1.6-1.8h11.8v-4c0-2,1.1-2.8,3-2.8c2,0,3.1,0.8,3.1,2.8v4h11.9c1,0,1.6,0.6,1.6,1.8
		c0,1.1-0.6,1.8-1.6,1.8h-11.9v5.6h5.9c3.2,0,4.4,2.1,3,5.1c-1.5,3.2-3.6,6-6.3,8.3c2.6,1,5.6,1.8,9.2,2.4
		C123.8,32.5,124.6,33.8,124.3,35.8z M107.6,27.3c2.2-2,4-4.3,5.3-7c0.2-0.3,0-0.7-0.4-0.7h-12C102.2,22.8,104.5,25.3,107.6,27.3z"
		/>
	<path class="st1" d="M143.4,21.4v12.5c0,4.2-4.2,5-8.8,3c-0.7-0.4-1-1-0.8-1.7c0.2-0.7,0.7-1,1.5-0.9c2.4,0.2,2.7,0,2.7-1.5v-8.6
		c-0.2,0.1-0.5,0.2-0.8,0.3c-1.6,0.7-2.9,0.2-3.4-1.6c-0.5-1.7,0.1-2.9,1.8-3.2c0.8-0.2,1.5-0.4,2.3-0.6v-7h-2.3
		c-1,0-1.5-0.6-1.5-1.5c0-0.9,0.6-1.5,1.5-1.5h2.3V3.1c0-1.6,0.9-2.4,2.7-2.4c1.7,0,2.7,0.8,2.7,2.4v6.1h1.5c0.5,0,0.9,0.1,1.1,0.4
		V8.9c0-1.6,0.9-2.4,2.5-2.4h1.2c-0.6-1-1.3-2.1-1.9-3c-0.4-0.6-0.4-1.2,0-1.7c0.5-0.5,1.1-0.6,1.7-0.2c1.2,0.6,2.6,1.8,3.6,2.9
		c0.6,0.7,0.8,1.4,0.6,2h1.3V2.7c0-1.4,0.9-2.2,2.5-2.2s2.6,0.8,2.6,2.2v3.8h1.2c0.7-1.2,1.2-2.6,1.9-4.1c0.5-1.4,1.8-1.6,3-1.1
		c1.2,0.6,1.6,1.8,0.6,3.1c-0.7,0.8-1.3,1.5-1.9,2.1h1.8c1.6,0,2.4,0.9,2.4,2.4v2.5c0,1.4-0.9,2.1-2.5,2.1c-0.5,0-0.9-0.1-1.2-0.2
		v2.2c0,1.5-0.8,2.3-2.3,2.3H152c-1.5,0-2.3-0.8-2.3-2.3v-2c-0.3,0.1-0.7,0.2-1.2,0.2c-1.5,0-2.4-0.6-2.5-1.9
		c-0.2,0.2-0.6,0.4-1.1,0.4h-1.5v5.4l1.7-0.6c0.7-0.3,1.4-0.1,1.7,0.5c0.4,0.6,0.2,1.2-0.4,1.8C145.6,20,144.5,20.7,143.4,21.4z
		 M169.8,26.6c0,1-0.5,1.5-1.5,1.5h-5v5.7c0,4.6-4,5.6-9.3,3.5c-0.9-0.4-1.2-1-1-1.7c0.2-0.8,0.7-1.1,1.5-1c3.3,0.3,3.6,0,3.6-1.4
		v-3.9c-2.8,4-7.9,6.8-12.4,7.9c-0.9,0.2-1.5-0.1-1.7-0.8c-0.3-0.7-0.1-1.4,0.8-1.8c3.6-1.5,6.8-3.5,8.8-6.4h-2.3
		c-0.2,0.5-0.3,0.9-0.5,1.2c-0.5,1.2-1.7,1.5-2.9,1c-1.2-0.5-1.7-1.3-1.2-2.6c0.4-1.2,1-3,1.5-4.4c0.2-0.5,0.4-0.8,0.8-1.1h-0.9
		c-1,0-1.5-0.5-1.5-1.4c0-0.9,0.5-1.4,1.5-1.4h18.8c0.9,0,1.4,0.5,1.4,1.4c0,0.9-0.5,1.4-1.4,1.4h-3.5v2.9h5
		C169.3,25.2,169.8,25.7,169.8,26.6z M163.1,10.9c0.4,0,0.7,0,1,0.2V9.9c0-0.3-0.2-0.5-0.5-0.5h-12.1c-0.3,0-0.5,0.2-0.5,0.5V11
		c0.3-0.1,0.6-0.2,1-0.2H163.1z M152.4,24.7l-0.1,0.5h5.9v-2.9h-7C152.3,22.7,152.7,23.5,152.4,24.7z M160.8,14.1
		c0-0.3-0.2-0.5-0.5-0.5h-5.4c-0.3,0-0.5,0.2-0.5,0.5v0.6c0,0.3,0.2,0.5,0.5,0.5h5.4c0.3,0,0.5-0.2,0.5-0.5V14.1z"/>
	<path class="st1" d="M214.6,34.1c0,1.1-0.6,1.8-1.7,1.8h-32.2c-1.1,0-1.7-0.6-1.7-1.8c0-1.1,0.6-1.8,1.7-1.8h13V7.9H183
		c-1,0-1.6-0.6-1.6-1.7c0-1,0.6-1.7,1.6-1.7h27.6c1,0,1.6,0.6,1.6,1.7c0,1.1-0.6,1.7-1.6,1.7h-10.8v24.5H213
		C214,32.4,214.6,33,214.6,34.1z"/>
	<path class="st1" d="M259.7,29.3c0,1-0.6,1.6-1.6,1.6h-13v2.8c0,4.6-4.8,6-11.3,3c-0.8-0.4-1.1-1-0.8-1.7c0.2-0.7,0.6-1,1.6-0.9
		c4.6,0.5,5,0.4,5-1.3v-2h-14.1c-1,0-1.6-0.6-1.6-1.6c0-1,0.6-1.6,1.6-1.6h14.1v-1c0-1.6,1-2.5,2.8-2.5c0.9,0,1.6,0.2,2,0.6
		c0.6-0.3,1.2-0.7,1.6-1c0.4-0.3,0.2-0.6-0.2-0.6H233c-0.9,0-1.5-0.5-1.5-1.5c0-0.9,0.6-1.4,1.5-1.4h16.5c1.3,0,2.4,0.4,2.7,1.4
		c0.4,1,0,2.2-1.4,3.1c-2,1.2-3.8,2.1-5.6,2.7v0.2h13C259.2,27.7,259.7,28.3,259.7,29.3z M224.7,21.8v-3.3c0-1.6,0.9-2.4,2.5-2.4
		h0.3l-0.4-11.2c0-1.6,0.8-2.3,2.3-2.4c0.7,0,1.3,0.2,1.7,0.5c1-0.5,2-1.1,3-1.9c0.9-0.7,2-0.6,2.7,0.4c0.8,1.1,0.4,2.2-0.8,2.7
		c-1.3,0.6-2.7,0.9-4.3,1.2c0,0.4,0,0.8,0,1.2h3.3c0.9,0,1.5,0.6,1.5,1.5s-0.6,1.5-1.5,1.5H232c0,0.6,0,1.2,0,1.7h3.2
		c0.9,0,1.5,0.6,1.5,1.5s-0.6,1.5-1.5,1.5h-3.2c0,0.6,0,1.2,0,1.8h5.6c-0.2-0.1-0.3-0.2-0.4-0.4c-0.3-0.6-0.2-1.1,0.4-1.5
		c0.8-0.5,1.6-1.1,2.3-1.7c-0.7-0.5-1.3-1-1.8-1.3c-0.6-0.4-0.6-1-0.3-1.5c0.3-0.5,0.8-0.7,1.4-0.4c0.8,0.3,1.6,0.8,2.5,1.3
		c0.3-0.3,0.5-0.7,0.8-1c0.6-1,1.4-1.2,2.4-0.6c0.8,0.5,1.1,1.4,0.4,2.3c-0.3,0.4-0.6,0.7-0.9,1.1c0.4,0.3,0.9,0.6,1.2,1
		c0.9,0.8,0.8,1.6,0.1,2.4c-0.3,0.3-0.6,0.5-0.8,0.6h6.5c0-0.6,0-1.2,0-1.8h-3c-0.9,0-1.5-0.6-1.5-1.5s0.6-1.5,1.5-1.5h3.1
		c0-0.6,0-1.2,0-1.7h-3.2c-0.9,0-1.5-0.6-1.5-1.5s0.6-1.5,1.5-1.5h3.2c0-0.4,0-0.8,0-1.2c0-0.3-0.2-0.5-0.5-0.5h-3.2
		c-1,0-1.5-0.6-1.5-1.5s0.5-1.5,1.5-1.5h6c1.6,0,2.5,0.9,2.4,2.5L256.1,16h0.4c1.6,0,2.4,0.8,2.4,2.4v3.3c0,1.5-0.9,2.3-2.6,2.3
		c-1.6,0-2.6-0.8-2.6-2.3v-2.4c0-0.3-0.2-0.5-0.5-0.5h-23c-0.3,0-0.5,0.2-0.5,0.5v2.4c0,1.5-0.9,2.2-2.6,2.2
		C225.6,24,224.7,23.3,224.7,21.8z M237.7,6.7c0.8-0.5,1.6-1.2,2.3-1.9c-0.6-0.6-1.2-1-1.8-1.4c-0.6-0.4-0.6-1-0.3-1.5
		c0.3-0.5,0.8-0.8,1.5-0.5c0.8,0.4,1.6,0.8,2.5,1.3c0.3-0.4,0.5-0.8,0.8-1.2c0.5-0.8,1.3-1,2.3-0.4c0.9,0.5,1.1,1.4,0.4,2.4
		c-0.2,0.4-0.5,0.7-0.8,1l1.2,1c0.8,0.8,0.9,1.6,0.2,2.4c-0.8,0.7-1.7,0.8-2.4,0l-1.2-1.2c-1.1,0.9-2.3,1.6-3.4,2
		c-0.6,0.2-1.1,0-1.4-0.5C237.1,7.7,237.2,7.1,237.7,6.7z M238.9,16h5.4c-0.3-0.1-0.6-0.2-0.8-0.5c-0.4-0.4-0.8-0.8-1.4-1.3
		C241.1,15,240,15.7,238.9,16z"/>
</g>
</svg>
