<?xml version="1.0" encoding="utf-8"?>
<!-- Generator: Adobe Illustrator 22.0.0, SVG Export Plug-In . SVG Version: 6.00 Build 0)  -->
<svg version="1.1" id="圖層_1" xmlns="http://www.w3.org/2000/svg" xmlns:xlink="http://www.w3.org/1999/xlink" x="0px" y="0px"
	 viewBox="0 0 1920 1080" style="enable-background:new 0 0 1920 1080;" xml:space="preserve">
<style type="text/css">
	.st0{fill:#DADADA;}
</style>
<path class="st0" d="M0-0.2v1080.4h1920V-0.2H0z M443.5,740.7c0.3-60-277.5-183.6-258.4-282.9c57.5-291,777.5-155,1149.2-301.4
	c174.5-68.7,184.4,166.6,286.4,386.3c56.2,121.6,163,214,114.3,311.2c-136.8,273.2-526.3,41.3-941.1,133.8
	c-277.4,61.5-462.8-1.3-562.8-113.8C170.7,806.4,443.2,827.7,443.5,740.7z"/>
</svg>
