<?xml version="1.0" encoding="UTF-8"?>
<svg width="3001px" height="77px" viewBox="0 0 3001 77" version="1.1" xmlns="http://www.w3.org/2000/svg" xmlns:xlink="http://www.w3.org/1999/xlink">
    <!-- Generator: Sketch 61.2 (89653) - https://sketch.com -->
    <title>Path 7</title>
    <desc>Created with Sketch.</desc>
    <g id="Page-1" stroke="none" stroke-width="1" fill="none" fill-rule="evenodd">
        <path d="M1232.76562,76.9760949 C1504.267,76.9760949 1756.89206,0.462273764 1998,0.462273764 C2239.10794,0.462273764 2404.34426,76.9760949 2807.52357,76.9760949 C2873.48702,76.9760949 2937.64758,72.2762407 3000.00524,62.8765323 L3000.00524,0.462273764 L0,0.462273764 L0,76.9760949 C125.242187,76.9760949 390.460965,11.2734375 523.195313,11.2734375 C793.443887,11.2734375 961.264248,76.9760949 1232.76562,76.9760949 Z" id="Path-7" fill="#DADADA"></path>
    </g>
</svg>